{
  "defaultSeverity": "error",
  "extends": [
    "tslint:recommended", 
    "tslint-react", 
    "tslint-config-prettier"
  ],
  "jsRules": {},
  "rules": {
    "only-arrow-functions": false,
    "jsx-no-lambda": false,
    "ordered-imports": false,
    "jsx-boolean-value": false,
    "interface-name": false,
    "object-literal-sort-keys": false,
    "member-access": false
  },
  "rulesDirectory": []
}
